B-H incentives
…
## Warning: Outer names are only allowed for unnamed scalar atomic inputs

## Warning: Outer names are only allowed for unnamed scalar atomic inputs

## Warning: Outer names are only allowed for unnamed scalar atomic inputs

## Warning: Outer names are only allowed for unnamed scalar atomic inputs

## Warning: Outer names are only allowed for unnamed scalar atomic inputs

## Warning: Outer names are only allowed for unnamed scalar atomic inputs

## Warning: Outer names are only allowed for unnamed scalar atomic inputs

## # A tibble: 6,000 x 4
## # Groups:   iter [1,000]
##     iter nregions method            k
##    <int>    <dbl> <fct>         <int>
##  1     1        8 k_pnull_count     5
##  2     1        8 k_raw             1
##  3     1        8 k_bh              1
##  4     1       12 k_pnull_count     7
##  5     1       12 k_raw             3
##  6     1       12 k_bh              0
##  7     2        8 k_pnull_count     6
##  8     2        8 k_raw             4
##  9     2        8 k_bh              2
## 10     2       12 k_pnull_count     7
## #  with 5,990 more rows
…
