B-H for incentive calculation
…
Comparing stimuli data to alternative datasets drawn from the same data generating process

For Section 5.3 Limitations

## # A tibble: 700 x 7
##    nregions trial  mean    sd    mu data       delta
##       <dbl> <int> <dbl> <dbl> <dbl> <list>     <dbl>
##  1       12     1   0.9     3   0   <dbl [20]>   0.3
##  2       12     1   0.9     3   0   <dbl [20]>   0.3
##  3       12     1   0.9     3   0.9 <dbl [20]>   0.3
##  4       12     1   0.9     3   0   <dbl [20]>   0.3
##  5       12     1   0.9     3   0   <dbl [20]>   0.3
##  6       12     1   0.9     3   0   <dbl [20]>   0.3
##  7       12     1   0.9     3   0.9 <dbl [20]>   0.3
##  8       12     1   0.9     3   0   <dbl [20]>   0.3
##  9       12     1   0.9     3   0.9 <dbl [20]>   0.3
## 10       12     1   0.9     3   0   <dbl [20]>   0.3
## #  with 690 more rows
…
